<?xml version="1.0" encoding="utf-8"?>
<!-- Generator: Adobe Illustrator 15.0.0, SVG Export Plug-In . SVG Version: 6.00 Build 0)  -->
<!DOCTYPE svg PUBLIC "-//W3C//DTD SVG 1.1//EN" "http://www.w3.org/Graphics/SVG/1.1/DTD/svg11.dtd">
<svg version="1.1" id="Layer_1" xmlns="http://www.w3.org/2000/svg" xmlns:xlink="http://www.w3.org/1999/xlink" x="0px" y="0px"
	 width="43px" height="34.9px" viewBox="0 0 43 34.9" style="enable-background:new 0 0 43 34.9;" xml:space="preserve">
<path style="fill:#FFFFFF;" d="M23.9,21.7c0-2.8,0.6-5.4,1.9-7.8c1.2-2.3,2.7-4.4,4.4-6.1c1.7-1.8,3.6-3.3,5.7-4.7
	c2.1-1.4,3.7-2.4,5-3.1L43,3.8c-1.8,1-3.5,2.1-5.1,3.2c-1.6,1.1-2.8,2.1-3.7,3.1c-1.2,1.3-2.1,2.6-2.8,4c-0.7,1.4-1.1,3.2-1.3,5.5
	h3.1c2.7,0,4.8,0.7,6.3,2.1c1.5,1.4,2.3,3.3,2.3,5.7c0,1.8-0.7,3.4-2.1,5c-1.4,1.6-3.2,2.4-5.6,2.4c-3.7,0-6.3-1.2-7.9-3.6
	C24.7,28.8,23.9,25.6,23.9,21.7 M0,21.7c0-2.8,0.6-5.4,1.9-7.8c1.2-2.3,2.7-4.4,4.4-6.1C8,6,9.9,4.5,11.9,3.1c2.1-1.4,3.7-2.4,5-3.1
	l2.2,3.8c-1.8,1-3.5,2.1-5.1,3.2c-1.6,1.1-2.9,2.1-3.7,3.1c-1.2,1.3-2.1,2.6-2.8,4c-0.7,1.4-1.1,3.2-1.3,5.5h3.1
	c2.7,0,4.8,0.7,6.3,2.1c1.5,1.4,2.3,3.3,2.3,5.7c0,1.8-0.7,3.4-2.1,5c-1.4,1.6-3.2,2.4-5.6,2.4c-3.7,0-6.3-1.2-7.9-3.6
	C0.8,28.8,0,25.6,0,21.7"/>
</svg>
