<?xml version="1.0" encoding="utf-8"?>
<!-- Generator: Adobe Illustrator 24.3.0, SVG Export Plug-In . SVG Version: 6.00 Build 0)  -->
<svg version="1.1" id="Layer_1" xmlns="http://www.w3.org/2000/svg" xmlns:xlink="http://www.w3.org/1999/xlink" x="0px" y="0px"
	 viewBox="0 0 1125 1125" style="enable-background:new 0 0 1125 1125;" xml:space="preserve">
<style type="text/css">
	.st0{fill:none;}
	.st1{opacity:0.3;}
	.st2{fill:#F796AB;}
	.st3{fill:#DB4A5F;}
	.st4{fill:#FFFFFF;}
	.st5{fill:#BA2B42;}
	.st6{fill:#F0758D;}
</style>
<rect class="st0" width="1125" height="1125"/>
<g class="st1">
	<g>
		<path class="st0" d="M448.33,763.81l-0.04-0.29c-0.56,0.07-1.11,0.14-1.67,0.24l-1.83,0.41l0.08,12.12
			c-1.08,13.24-3.91,26.77-7.51,39.56L470,768.21l-1.08-0.43C461.08,764.65,448.33,763.81,448.33,763.81z"/>
		<path class="st0" d="M318.71,866.69l-23.64,40.67l33.23,39.36c4.52-52.49,16.26-60.24,16.26-60.24l-3.73-48.51
			C331.34,855.58,318.71,866.69,318.71,866.69z"/>
		<path class="st0" d="M170.08,548.78c-0.06,0.04-0.12,0.08-0.19,0.09c-0.05,0-0.09,0.01-0.14,0.02c0.09-0.01,0.18-0.02,0.27-0.03
			L170.08,548.78z"/>
		<path class="st0" d="M256.67,815.64c-1.48-1.64-2.97-3.4-4.49-5.32l5.2-15.81c0,0,0.57,0.07,1.64,0.2l2.28-20.33
			c-2.29,0.35-4.75,0.31-7.5-0.22l0,0h-0.01c-6.65-1.3-22.3-4.89-22.3-4.89l63.37-159.97l-10.32-26.94l-0.88-10.31l-5.9-6.83
			l-10.41-29.85c-0.3,0.18-0.58,0.35-0.89,0.53l-27.73,23.71l-18.18,14.86c-3.36,2.75-5,6.99-4.63,11.31c0,0.01,0,0.03,0,0.05
			c0.01,0.17,0.02,0.33,0.03,0.5c0,0.08,0.01,0.16,0.01,0.24c0.02,0.5,0.01,1.02-0.03,1.54c-0.01,0.08-0.02,0.17-0.02,0.25
			c-0.02,0.18-0.03,0.35-0.05,0.53c-0.01,0.1-0.03,0.21-0.05,0.31c-0.02,0.16-0.05,0.32-0.08,0.48c-0.02,0.11-0.05,0.23-0.08,0.34
			c-0.03,0.15-0.07,0.31-0.11,0.46c-0.03,0.12-0.07,0.23-0.1,0.35c-0.05,0.15-0.09,0.3-0.14,0.45c-0.04,0.12-0.09,0.24-0.13,0.35
			c-0.06,0.15-0.12,0.29-0.18,0.44c-0.05,0.12-0.11,0.24-0.16,0.35c-0.07,0.14-0.14,0.29-0.22,0.43c-0.06,0.12-0.13,0.24-0.2,0.35
			c-0.08,0.14-0.17,0.28-0.26,0.42c-0.08,0.12-0.15,0.23-0.23,0.35c-0.1,0.14-0.2,0.28-0.31,0.41c-0.09,0.11-0.17,0.23-0.27,0.34
			c-0.11,0.14-0.24,0.27-0.36,0.41c-0.1,0.11-0.2,0.22-0.3,0.32c-0.13,0.14-0.28,0.27-0.42,0.4c-0.11,0.1-0.22,0.2-0.33,0.3
			c-0.16,0.14-0.33,0.27-0.5,0.4c-0.12,0.09-0.23,0.19-0.35,0.28c-0.2,0.14-0.41,0.28-0.62,0.42c-0.11,0.07-0.22,0.15-0.33,0.22
			c-0.32,0.2-0.65,0.39-1.01,0.57c-0.02,0.01-0.03,0.02-0.05,0.03c0,0-3.13,0.72-6.38,3.26c-1.83,1.43-3.68,3.46-5.06,6.24
			c-0.59,1.19-1.09,2.52-1.45,4.01c-0.18,0.73-0.33,1.51-0.44,2.32c-0.07,0.54-0.16,1.06-0.2,1.63c0,0-0.07,0.88-0.66,2.06
			c-0.98,1.97-3.38,4.78-9.24,5.75l-17.03,21.71l-1.83,2.34c3.4,4.18,5.32,7.83,5.32,7.83c-20,12.38-28.15,32.86-30.21,38.96
			c-0.19,0.59-0.37,1.17-0.55,1.78c1.22,2.16,2.07,4.68,2.67,7.28c2.66,0.72,5.06,2.03,7.01,3.98c6.63,6.63,5.94,18.43-0.92,28.41
			l101.98,120.8L256.67,815.64z"/>
		<path class="st0" d="M249.74,1075.11L327,968.37c0.17-4.34,0.37-8.46,0.62-12.36l-37.73-39.72l-50.7,87.22
			c2.63,1.87,5.28,3.99,7.94,6.46c0,0-30.09,25.79-19.54,46.5l8.86,12.08c2.61,3.56,3.95,7.9,3.81,12.32l-0.06,1.81h85.35
			l-0.26-0.03c0,0-6.64-14.91-2.74-30.51c0,0,1.72-29.08-1.23-35.4c0,0,1.99-1.42,5.52-3.24c-0.24-9.51-0.32-18.32-0.26-26.47
			l-64.66,85.76L249.74,1075.11z"/>
		<g>
			<path class="st2" d="M267.37,535.36l10.41,29.85l-10.34-29.89C267.42,535.34,267.4,535.35,267.37,535.36z"/>
			<path class="st2" d="M482.63,749.77L451.9,642.12l0,0l-10.14-31.13l-1.15-3.52l-3.69-11.34c-11.14-22.07-25.26-42.62-40.63-61.32
				l-3.61,3.67l-24.92-25.51l2.48-1.42l22.89,22.38l1.4-1.25l3.47-3.09l8.27-7.38c14.35,17.29,23.31,30.75,27.52,37.49l-2.61-57.16
				c-2.9-0.88-6.06-2.48-9.39-5.21c-3.74-3.06-6.71-6.94-8.96-11.21c-25.23-0.66-50.44-15.08-80-35.65
				c22.03,17.67,40.21,35.03,54.86,50.68l3.92-2.34l19.01,19.52l-1.69,1.51l-17.65-18.18l-1.99,1.19l-6.04,3.61l6.12,6.43
				l-2.09,1.55l-7.92-8.32l-5.58,3.33c-10.37-10.82-20.9-20.82-31.16-29.92c-3.11,7.12-7.53,17.65-13.62,33.06
				c-1.01,2.55-2.67,4.84-4.74,6.8l0,0c9.51,13.63,14.53,22.23,22.38,34.75c6.28,10.03,18.51,18.23,31.61,21.47l43.6,8.34
				c0,0-122.9,2.96-115.6,3.06c28.09,0.38,45.79,1.15,56.8,20.45c0.14,0.25,0.29,0.49,0.43,0.75l1.52,2.77l5.69,10.37l51.42,111.03
				l15.47,33.4l7.24-1.62l1.83-0.41c0.55-0.1,1.11-0.18,1.67-0.24l-3.65-23.49l-0.89-5.75l-18.69-120.43l43.86,153.94l1.08,0.43
				l19.73,7.89l0.48,0.19l-0.16-0.57L482.63,749.77z"/>
			<path class="st2" d="M333.74,386.21c0.74,0.77,1.43,1.53,1.97,2.25c0.34,0.46,0.62,0.9,0.87,1.32c0.98,1.69,1.26,3.1,1.05,4.32
				c-0.1,0.6-0.32,1.15-0.62,1.67c-0.24,0.4-0.53,0.79-0.87,1.15c-0.16,0.17-0.32,0.33-0.49,0.49c14.5,9.73,31.81,10.76,38.76,10.74
				l-0.74-1.78l-0.99-2.37c0.09,0,0.04-0.01-0.1-0.02c-1.59-0.14-2.95-0.76-4.06-1.68c-3.16-2.6-4.27-7.63-2.51-11.38
				c0.47-1,1.12-1.91,2.01-2.65c12.58-10.5,14.07-15.97,14.07-15.97c0.28-2.04-24.19,11.79-30.14,4.52
				c-2.58-3.15-4.11-6.52-4.18-13.86l0,0c-0.29,4.19-1.58,9.57-6.86,10.3c-4.99,0.69-8.12,1.61-9.96,2.67
				c-2.06,1.18-2.51,2.55-2.08,4C329.46,381.95,331.77,384.14,333.74,386.21z"/>
			<path class="st2" d="M267.96,424.09c0.42-0.2,0.83-0.39,1.26-0.59c-0.01-0.01-0.03-0.02-0.04-0.03l10.98-5.56l0.15-0.08
				l4.03-2.04l0.1-0.05h0.01c-0.03-0.02-0.07-0.05-0.1-0.07c-0.32-0.2-0.85-0.57-1.57-1.14c-0.14-0.11-0.27-0.22-0.42-0.34
				c-1.06-0.86-2.44-2.07-4.06-3.64c-0.24-0.23-0.43-0.49-0.6-0.77c-2.25-3.83,2.67-11.55,6.69-13.79c2.84-1.73,2.84-3.54,1.83-5.47
				c-1.49-2.84-5.19-5.92-5.22-9.35c-0.04-5.21,2.83-10,7.28-12.49l9.98-5.59c3.77-2.11,6.39-5.9,7.09-10.25l1.88-11.65
				c5.2-33.79,20.78-35.44,21.29-35.89c-7.34,1.1-13.02,3.12-19.84,9.42c-4.61,4.26-6.83,6.8-8.06,9.57
				c-1.45,3.27-1.51,6.86-2.43,14.01l-1.39,8.62c-0.52,3.22-2.46,6.02-5.25,7.59l-7.28,4.08c-3.27,1.83-5.58,5.3-5.49,9.12
				c0.01,0.4-0.03,0.8-0.06,1.2c-0.01,0.16-0.01,0.32-0.03,0.47c-0.48,3.64-2.76,6.82-6.1,8.32l-0.12,0.06
				c-3.76,1.69-6.19,5.51-6.19,9.73v0.06v2.18l0,0c0,0.12-0.02,0.23-0.02,0.35c-0.01,0.35-0.03,0.69-0.07,1.03
				c-0.03,0.28-0.09,0.56-0.15,0.84c-0.03,0.14-0.05,0.27-0.09,0.41c-0.08,0.34-0.18,0.67-0.3,1c-0.01,0.03-0.02,0.06-0.03,0.08
				c-0.2,0.55-0.46,1.07-0.74,1.59c-0.15,0.26-0.31,0.51-0.47,0.76c-0.14,0.21-0.28,0.4-0.43,0.6c-0.54,0.69-1.15,1.32-1.85,1.86
				c-0.75,0.57-1.59,1.01-2.47,1.35c-2.5,0.98-14.66,7.49-5.66,31.52c-8.7,4.41-14.68,7.9-20.89,13.91c-0.01,0,0-0.01-0.01,0
				c-28.84,22.69-25.87,52.54-25.6,54.18c0.02,0.1-0.01,0.21-0.08,0.29l-37.51,48.68c-0.06,0.08-0.16,0.14-0.27,0.14
				c-24.45,2-24.82,29.36-24.68,34.36c0.01,0.35,0.02,0.6,0.03,0.71c0,0.02-0.01,0.04-0.01,0.06c0,0.03,0,0.06-0.02,0.09
				l-18.48,47.76c0.04,0,0.08,0,0.12,0c1.55-0.06,3.18-0.07,4.88-0.01c0.06,0,0.12,0,0.18,0.01c5.47,0.23,11.59,1.23,17.68,3.75
				c1.33-27.54,2.86-27.93,3.69-54.15c0.05-1.53-1.99-11.52-2.09-13.06c-0.74-10.36,7.75-17.81,18.79-18.94
				c0.05-0.01,0.09-0.01,0.14-0.02c0.07-0.01,0.13-0.04,0.19-0.09c0.01-0.01,0.03-0.01,0.04-0.02l39.08-38.14
				c8.35-8.09,20.33,2.55,9.66-9.52c-9.17-10.37-1.95-30.55,3.56-41.28c20.55-30.04,27.74,2.4,35.82,29.42
				c1.23,4.12,2.48,8.1,3.81,11.73c3.42,9.38,7.32,16.32,12.58,16.63l8.7,0.51l20.23,1.19c9.12,0.54,19.72-2.24,23.57-11.22
				l14.44-29.47c-4.35-3.84-8.64-7.52-12.85-11.03c-26.05-21.73-48.67-36.94-59.48-44.08c0,0-0.01,0-0.01-0.01"/>
			<path class="st2" d="M383.78,433.6c-2.62,0.94-6.56,1.93-11.83,2.11c-8.44,0.28-20.27-1.54-35.48-9.08
				c0,0,17.11,14.63,38.64,13.42c3.76-0.21,7.67-0.92,11.63-2.26c1.12-0.38,2.25-0.8,3.39-1.29c0.09-0.04,0.18-0.07,0.27-0.11
				l-0.92-1.53l-1.85-3.07C387.65,431.8,386.35,432.68,383.78,433.6z"/>
			<path class="st2" d="M603.73,433.19v-0.03l-50.87,8.4c-2.23,0.51-4.19,1.86-5.47,3.75c-1.45,2.15-3.22,4-5.22,5.54
				c-4.73,3.65-10.73,5.47-16.86,4.91l-0.86-0.08l-9.5-0.88c-28.9,16.63-58.98-5.95-65-10.9c-0.4-0.33-0.69-0.57-0.87-0.73
				c0.43,0.38,0.85,0.75,1.28,1.12c4.56,3.98,8.88,7.3,12.92,10.07c8.65,5.94,15.99,9.38,21.56,11.34
				c6.01,2.12,12.49,2.54,18.76,1.35l3.64-0.69l4.26-0.81l0.61,0.31c1.33,0.68,2.78,1.02,4.23,1.05c0.16,0,0.32,0.02,0.48,0.01
				c0.08,0,0.16,0,0.24,0c0.25-0.01,0.49-0.05,0.74-0.08c1.38-0.17,2.74-0.61,3.96-1.36c3.97-2.42,8.77-3.1,13.25-1.87l3.54,0.97
				c2.29,0.63,4.73-0.15,6.22-1.99l1-1.23l0.56-0.69c0.02-0.02,0.04-0.04,0.06-0.06c2.07-2.51,4.9-4.28,8.06-5.02l49.11-15.82
				c-0.02-0.38-0.03-0.75-0.04-1.13C603.46,436.81,603.54,434.98,603.73,433.19z"/>
			<path class="st2" d="M449.08,443.19c-0.08-0.07-0.16-0.14-0.24-0.21C448.84,442.98,448.94,443.06,449.08,443.19z"/>
			<path class="st2" d="M383.64,356.71l1.86-2.29c1.82-2.25,1.52-2.74,2.68-5.3l-1.46-1.05l-6.15-3.77
				c-0.92-0.44-1.87-0.8-2.87-0.96c-3.61-0.58-7.31,0.69-9.85,3.49l-0.51,0.56l-9.52,5.44c0,0,6.32,4.59,12.39,7.18
				C373.68,361.49,381.23,359.68,383.64,356.71z M371.89,349.78c3.29-1.59,7.16-1.22,10.13,0.96l-2.96,2.56l-7.79-3.22
				L371.89,349.78z"/>
			<path class="st2" d="M105.48,706.85c-5.12,2.11-7.83-1.96-9.24-5.95c-1.08-3.08-1.38-6.11-1.39-6.23v-0.01
				c-0.03,0.05-0.04,0.11-0.07,0.16c-0.05,0.11-0.09,0.21-0.13,0.32c-0.15,0.36-0.27,0.71-0.37,1.03c-0.6,1.77-0.84,3.47-0.83,4.99
				c0.02,3.58,1.21,6.14,1.21,6.14s7.78,15.57,10.4,19.88c0.73,1.21,1.73,2.12,2.79,2.83c0.06-0.37,0.14-0.74,0.22-1.1
				c1.23-5.63,4.37-11.46,9.29-16.39c0.26-0.26,0.53-0.49,0.79-0.74C117.46,702.71,105.48,706.85,105.48,706.85z"/>
			<path class="st2" d="M423.89,490.24c5.13,3.72,9.54,5.06,12.97,5.29c3.96,0.27,7.79-1.42,10.38-4.44l4.84-5.64l14.88-17.35
				l0.03-0.04l-1.7-2.35l-0.09,0.06l-10.69,6.7c-3,1.88-6.11,3.57-9.29,5.09c-4.45,2.13-9.06,3.9-13.79,5.29
				c-3.76,1.11-7.6,1.94-11.48,2.57c-0.47,0.08-0.95,0.15-1.42,0.22c0.51,0.5,1,1.03,1.53,1.51
				C421.38,488.35,422.65,489.35,423.89,490.24z"/>
		</g>
		<g>
			<path class="st3" d="M335.75,607.47l-1.23,3.52l-51.91,148.52l-1.03,2.96l-0.56,1.59l-0.01,0.02c0.41-0.26,0.82-0.48,1.23-0.72
				c7.14-4.07,13.52-4.67,18.66-3.86c8.22,1.29,13.29,6.14,13.29,6.14l0.94-6.87l0.34-2.46l4.47-32.77l15.35-112.56L335.75,607.47z"
				/>
			<path class="st3" d="M370.66,621.36l-5.82,106.08l-1.33,24.21l-0.64,11.63c0,0,7.24-2.09,16.23-0.43
				c3.73,0.69,7.74,2.01,11.69,4.41c14.07,8.58,35.98,2.7,46.76-1.46l-15.47-33.4L370.66,621.36z"/>
			<path class="st3" d="M425.05,613.84l18.69,120.43l0.89,5.75l3.65,23.49l0.04,0.29c0,0,12.75,0.84,20.58,3.97l0,0L425.05,613.84z"
				/>
			<polygon class="st3" points="250.15,773.35 253.8,774.15 253.8,774.15 253.89,773.89 300.24,636.21 236.33,770.48 			"/>
			<path class="st3" d="M367.49,320.19c5.42-3.79,11.59-4.86,18.76,0.6c0,0,2.5-4.09,1.17-10.11c-3.04-2.83-6.05-2.88-8.88-1.87
				c-1.29,0.21-3.71,0.47-6.74,0.14c-2.6-0.28-5.64-0.99-8.78-2.55c-8.68-4.28-27.01-1.87-27.01-1.87
				c10.2-0.55,19.49,2.27,21.78,3.92c3.19,2.3,5.29,3.84,7.2,4.83c0.39,0.2,0.79,0.38,1.17,0.54c0.78,0.32,1.57,0.55,2.41,0.69
				c-0.16,0.06-0.32,0.14-0.47,0.19c-0.32,0.11-0.66,0.21-1.02,0.32c-2.18,0.66-4.24,1.89-6.18,3.39c-3.31,2.55-6.26,5.9-8.85,8.6
				c-3.52,3.67-5.67,3.41-12.18,7.7c-5,3.29-8.93,9.38-3.88,21.59c0,0,2.24,3.54,1.56,6.91c-0.2,0.97-0.64,1.93-1.45,2.78
				c-1.34,1.41-3.67,2.54-7.59,2.98c-15.78,1.75-8.55,15.24-7.2,21.81c0.27,1.33,0.32,2.55,0.21,3.7c-0.2,2.16-1.02,4-2.47,5.51
				c-1.38,1.44-3.29,2.59-5.7,3.46c-2.76,0.99-20.56,8.31-22.96,9.29c10.83-1.83,25.27-3.43,39.84-0.54c7.14,1.42-4.95-1.97-3-8.3
				c0.72-2.34,5.57-3.89,8.4-6.5c0.17-0.16,0.34-0.32,0.49-0.49c0.34-0.36,0.63-0.74,0.87-1.15c0.31-0.51,0.52-1.07,0.62-1.67
				c0.21-1.22-0.07-2.64-1.05-4.32c-0.25-0.42-0.53-0.86-0.87-1.32c-0.54-0.72-1.23-1.48-1.97-2.25c-1.98-2.07-4.28-4.26-4.88-6.29
				c-0.43-1.45,0.03-2.82,2.08-4c1.85-1.06,4.98-1.98,9.96-2.67c5.28-0.73,6.57-6.11,6.86-10.3c0.13-1.93,0.06-3.6,0.05-4.45
				c-0.01-4.38,0.53-7.43,1.7-11.89c0.66-2.51,2.11-5.6,3.22-7.76c1.55-3.01,2.74-4.82,4.65-7.83c1.35-2.12,3.22-4.4,4.55-6.03
				C363.49,323.11,365.51,321.57,367.49,320.19z"/>
			<polygon class="st3" points="332.51,960.75 327.66,955.19 291.46,913.57 250.9,866.95 143.23,743.19 140.79,740.38 142.3,743.93 
				150.55,763.44 250.07,874.36 289.89,916.28 327.61,956.01 332.34,960.98 336.73,965.6 336.73,965.6 			"/>
			<path class="st3" d="M257.38,794.51l-5.2,15.81c1.53-0.06,3.26-0.14,5.11-0.24c11.7-0.6,29.2-1.82,44.21-2.93
				c16.08-1.19,29.26-2.24,29.26-2.24c-39.66-6.23-65.26-9.43-71.74-10.22C257.95,794.57,257.38,794.51,257.38,794.51z"/>
		</g>
		<g>
			<path class="st4" d="M601.87,455.36l-9.56,2.72C595.68,457.14,598.88,456.23,601.87,455.36z"/>
			<path class="st4" d="M543.01,421.57l-3.8-1.41c-2.68-0.99-5.53-1.46-8.38-1.32c-3.36,0.17-6.52,0.51-11.39,2.04
				c-2.02,0.64-9.07,4.15-13.66,6.79c-9.5,1.57-15.58,2.58-15.58,2.58l-53.96-11.17c-6.26-5.08-26.83-12.48-54.21-5.93
				c-1.79-4.2-3.83-8.91-5.29-12.94l1.52-0.19c2.72-1.03,7.08-3.84,7.33-6.74l1.2-16.67l7.27-0.76c2.13-0.45,3.66-3.76,2.68-5.78
				l-7.96-16.89l0.79-5.46c0.27-2.22,0.27-2.22,0.36-4.22l-3.68-22.72l0,0c-7.18-5.46-13.34-4.38-18.76-0.6
				c-1.98,1.38-4,2.92-5.54,4.8c-1.34,1.63-3.2,3.91-4.55,6.03c-1.92,3.02-3.11,4.82-4.65,7.83c-1.11,2.16-2.56,5.25-3.22,7.76
				c-1.17,4.45-1.71,7.5-1.7,11.89c0,0.85,0.08,2.52-0.05,4.45l0,0c0.07,7.34,1.6,10.7,4.18,13.86c5.95,7.27,30.43-6.56,30.14-4.52
				c0,0-1.49,5.48-14.07,15.97c-0.89,0.74-1.54,1.66-2.01,2.65c-1.76,3.75-0.65,8.78,2.51,11.38c1.12,0.92,2.47,1.54,4.06,1.68
				c0.14,0.01,0.19,0.02,0.1,0.02l0.99,2.37l0.74,1.78c-6.95,0.02-24.26-1.01-38.76-10.74c-2.84,2.62-7.68,4.16-8.4,6.5
				c-1.95,6.32,10.14,9.71,3,8.3c-14.57-2.89-29.01-1.29-39.84,0.54c2.4-0.99,20.21-8.3,22.96-9.29c2.41-0.87,4.32-2.02,5.7-3.46
				c1.45-1.51,2.27-3.35,2.47-5.51c0.1-1.15,0.06-2.37-0.21-3.7c-1.35-6.58-8.58-20.06,7.2-21.81c3.92-0.43,6.25-1.57,7.59-2.98
				c0.81-0.85,1.25-1.81,1.45-2.78c0.68-3.37-1.56-6.91-1.56-6.91c-5.05-12.21-1.13-18.3,3.88-21.59c6.51-4.28,8.66-4.02,12.18-7.7
				c2.59-2.7,5.54-6.05,8.85-8.6c1.94-1.5,4-2.73,6.18-3.39c0.36-0.11,0.7-0.22,1.02-0.32c0.15-0.05,0.31-0.13,0.47-0.19
				c-0.84-0.15-1.63-0.38-2.41-0.69c-0.39-0.16-0.78-0.34-1.17-0.54c-1.91-0.99-4.01-2.53-7.2-4.83
				c-2.29-1.65-11.58-4.47-21.78-3.92c0,0,18.34-2.41,27.01,1.87c3.15,1.55,6.19,2.26,8.78,2.55c3.04,0.33,5.45,0.07,6.74-0.14
				c2.83-1,5.84-0.95,8.88,1.87c0,0,0,0,0.01,0.01c0,0,0.06-2.34-2.23-5.61l0,0c-3.1-4.41-10.51-10.49-28.25-14.8
				c-17.26-4.19-31.47,2.86-41.13,10.64c-9.68,7.8-13.26,15.36-15.18,23.39c1.23-2.76,3.45-5.3,8.06-9.57
				c6.81-6.3,12.5-8.32,19.84-9.42c-0.51,0.45-16.09,2.1-21.29,35.89l-1.88,11.65c-0.7,4.35-3.32,8.14-7.09,10.25l-9.98,5.59
				c-4.46,2.5-7.32,7.28-7.28,12.49c0.03,3.42,3.72,6.51,5.22,9.35c1.01,1.92,1.01,3.74-1.83,5.47c-4.02,2.23-8.94,9.95-6.69,13.79
				c0.16,0.28,0.36,0.54,0.6,0.77c1.62,1.57,3,2.78,4.06,3.64c0.15,0.12,0.28,0.23,0.42,0.34c0.71,0.56,1.24,0.94,1.57,1.14
				c0.03,0.02,0.08,0.05,0.1,0.07h-0.01c17.84,11.44,33.94,23.15,48.38,34.73c29.57,20.56,54.77,34.99,80,35.65
				c-0.32-0.61-0.68-1.21-0.97-1.84l-0.94-2.03l-8.46-18.28l-5.41-11.68l0,0l9.87,17.14l2.4,4.16c1.66,2.88,3.56,5.6,5.67,8.15
				c1.12,1.35,2.3,2.64,3.55,3.88c0.47-0.07,0.95-0.14,1.42-0.22c3.88-0.62,7.72-1.46,11.48-2.57c4.73-1.39,9.34-3.16,13.79-5.29
				c3.18-1.52,6.29-3.21,9.29-5.09l10.69-6.7c-6.23-8.3-12.16-16.43-16.88-23.5c0.52,0.54,1.06,1.09,1.63,1.64
				c6.02,4.94,36.1,27.52,65,10.9l9.5,0.88l0.86,0.08c6.13,0.56,12.13-1.26,16.86-4.91c1.99-1.54,3.76-3.39,5.22-5.54
				c1.28-1.9,3.24-3.24,5.47-3.75l50.87-8.4v0.03c1.23-11.68,6.81-21.72,7.12-22.27C598.35,412.64,569.42,417.27,543.01,421.57z
				 M370.19,360c-6.06-2.59-12.39-7.18-12.39-7.18l9.52-5.44l0.51-0.56c2.54-2.8,6.24-4.07,9.85-3.49c1,0.16,1.96,0.53,2.87,0.96
				l6.15,3.77l1.46,1.05c-1.16,2.56-0.85,3.05-2.68,5.3l-1.86,2.29C381.23,359.68,373.68,361.49,370.19,360z M336.48,426.64
				c15.2,7.54,27.03,9.36,35.48,9.08c5.26-0.18,9.21-1.17,11.83-2.11c2.57-0.93,3.87-1.81,3.87-1.81l1.85,3.07l0.92,1.53
				c-0.09,0.04-0.18,0.07-0.27,0.11c-1.13,0.49-2.26,0.91-3.39,1.29c-3.97,1.34-7.87,2.05-11.63,2.26
				C353.59,441.27,336.48,426.64,336.48,426.64z"/>
			<path class="st4" d="M450.36,444.3c3.39,3.25,7.63,6.68,12.92,10.07C459.24,451.6,454.93,448.28,450.36,444.3z"/>
			<polygon class="st4" points="168.62,645.07 166.79,647.41 166.79,647.41 			"/>
			<path class="st4" d="M145.01,583.39c-0.01-0.11-0.02-0.36-0.03-0.71c0,0.33,0.01,0.59,0.02,0.77
				C145,583.43,145.01,583.41,145.01,583.39z"/>
			<path class="st4" d="M516.38,466.94c0.14,0.01,0.29-0.01,0.43-0.01c-0.16,0-0.32-0.01-0.48-0.01L516.38,466.94z"/>
			<path class="st4" d="M545.76,461.38c0.03-0.03,0.06-0.06,0.08-0.09l0.54-0.66c-0.02,0.02-0.04,0.04-0.06,0.06L545.76,461.38z"/>
			<path class="st4" d="M144.02,703.26c-0.6-2.59-1.46-5.12-2.67-7.28c0.18-0.6,0.36-1.19,0.55-1.78c-0.38,1.13-0.55,1.77-0.55,1.77
				c-2.94-4.59-3.76-10.23-2.23-15.47l8.6-29.52l3.16-10.84l1.14-3.91v-0.01c4.03,1.32,7.58,3.84,10.53,6.62l9.45-19.1
				c2.29-4.63,5.72-8.69,10.18-11.32c4.1-2.42,4.4-5.93,4.4-5.93c1.04-14.59,13.55-17.45,13.55-17.45
				c6.96-3.64,7.39-9.68,6.65-13.86c-0.55-3.14,0.47-6.34,2.84-8.46l6.13-5.47c7.23-6.46,19.28-18.05,28.44-28.55
				c3.6-4.13,7.46-9.52,10.22-15.18c2.89-5.91,4.83-21.74,3.83-28.24l0,0c-8.08-27.02-15.27-59.46-35.82-29.42
				c-5.51,10.73-12.73,30.9-3.56,41.28c10.67,12.07-1.3,1.43-9.66,9.52l-39.08,38.14c-0.01,0.01-0.03,0.01-0.04,0.02l-0.06,0.07
				c-0.09,0.01-0.18,0.02-0.27,0.03c-11.04,1.13-19.53,8.58-18.79,18.94c0.11,1.54,2.14,11.52,2.09,13.06
				c-0.83,26.22-2.36,26.61-3.69,54.15c-6.08-2.51-12.2-3.52-17.68-3.75c-0.06,0-0.12,0-0.18-0.01c-1.7-0.06-3.33-0.05-4.88,0.01
				c-0.04,0-0.08,0-0.12,0c-8.41,0.36-14.31,2.29-14.31,2.29c13.32,14.71,7.21,36.75,2.1,49.09c-2.4,0.24-6.14,0.85-9.76,2.39
				c-2.21,0.94-4.38,2.21-6.15,3.96c-0.96,0.95-2.56,3.45-3.53,5.64c0.01,0.13,0.31,3.15,1.39,6.23c1.4,3.99,4.12,8.06,9.24,5.95
				c0,0,11.98-4.14,12.68,4.92C126.12,704.24,136.22,701.16,144.02,703.26z"/>
			<path class="st4" d="M343.45,964.66l-7.41-8.78l-7.73-9.15l-33.23-39.36l-42.99-50.92L150.1,735.65l-10.78-12.77l-0.43-0.51
				l-1.36,1.3l-12.56,11.99l11.19,12.15l14.4,15.64l-8.25-19.5l-1.51-3.56l2.44,2.81L250.9,866.95l40.56,46.62l36.2,41.61l4.84,5.57
				l4.22,4.85l3.11,3.38c0.07,0.07,0.15,0.12,0.22,0.18c0.79,0.71,1.92,0.94,2.92,0.51c1.73-0.73,2.24-2.94,1.02-4.36L343.45,964.66
				z"/>
			<polygon class="st4" points="387.67,501.16 381.61,504.78 383.22,506.47 389.26,502.86 391.26,501.67 408.91,519.85 
				410.6,518.34 391.59,498.82 			"/>
			<path class="st4" d="M707.76,407.4l-8.6-0.77c-9.67-0.83-7.91-0.4-17.29-0.4L662.68,407l-47.96-3.55c0,0-1.66,2.86-3.35,7.39l0,0
				l0,0c-2.65,7.12-5.35,18.41-1.8,29.46c0.08-0.67,0.33-1.56,0.84-3.22l0,0c2.09-6.83,8.86-7.54,9.48-7.71l2.83-0.68l16.35-3.91
				l0.05,0.14c0.65-2.27,1.24-4.13,1.72-5.51c0.66-1.91,1.09-2.94,1.09-2.94c-0.18,2.13-0.42,4.73-0.34,7.12
				c0.06,1.72,0.29,3.32,0.82,4.58c0.21,0.49,0.46,0.92,0.77,1.29c0.26,0.31,0.56,0.59,0.91,0.79c3.16,1.86,5.91,3.14,8.74,4.53
				c0.02,0.01,0.04,0.02,0.06,0.03c0.12,0.06,0.24,0.12,0.36,0.18l1.47,0.63l8.33,3.56l0,0c1.83,0.73,3.6,1.44,5.09,2.03
				c2.21,0.88,4.71-0.07,5.79-2.19c0.97-1.89-0.98-3.96-2.59-5.34l-8.57-5.89l-0.06-0.04l0.04-0.03l-1.37-1.17
				c-1.59-1.36-1.04-3.41,0.41-5.13c0.56-0.66,1.24-1.27,1.99-1.78c1.01-0.68,2.13-1.19,3.2-1.36c2.85-0.45,5.76-1.23,9.31-1.97
				c0.3-0.06,0.61-0.13,0.92-0.19c6.37-1.26,14.85-2.28,28.59-1.05c4.46,0.4,5.1,0.43,3.78,1.42c1.97-0.05,3.77-1.3,4.44-3.28
				C714.98,410.31,710.78,407.9,707.76,407.4z"/>
		</g>
		<g>
			<path class="st5" d="M488.13,741.74l-22.09-60.75l15.13-9.87c11.62-7.58,14.62-23.3,6.62-34.64l-52.66-74.57
				c-0.38-0.63-0.83-1.36-1.35-2.21c-4.21-6.75-13.16-20.2-27.52-37.49l-8.27,7.38l-3.47,3.09l-1.4,1.25l-22.89-22.38l-2.48,1.42
				l24.92,25.51l3.61-3.67c15.38,18.7,29.49,39.25,40.63,61.32l3.69,11.34l1.15,3.52l10.14,31.13l0,0l30.73,107.65l7.41,25.95
				l0.16,0.57l2.1-3.37l18.19-22.45l-15.64-18.53L488.13,741.74z"/>
			<path class="st5" d="M410.22,883.26c0,0,4.24-7.75,9.78-20.13l10.71-14.21l59.01-72.83l-19.73-7.89l-32.64,47.64
				c3.6-12.79,6.44-26.32,7.51-39.56l-0.08-12.12l-7.24,1.62c-10.77,4.16-32.68,10.05-46.76,1.46c-3.94-2.4-7.96-3.72-11.69-4.41
				c-8.99-1.67-16.23,0.43-16.23,0.43l0.64-11.63l1.33-24.21l5.82-106.08l-5.69-10.37l-1.52-2.77c-0.14-0.26-0.29-0.5-0.43-0.75
				c-11-19.31-28.71-20.07-56.8-20.45c-7.3-0.1,115.6-3.06,115.6-3.06l-43.6-8.34c-13.11-3.23-25.33-11.43-31.61-21.47
				c-7.84-12.52-12.86-21.13-22.38-34.75l0,0c2.07-1.96,3.73-4.25,4.74-6.8c6.09-15.42,10.52-25.94,13.62-33.06
				c10.26,9.1,20.79,19.1,31.16,29.92l5.58-3.33l7.92,8.32l2.09-1.55l-6.12-6.43l-1.61-1.69l6.07-3.62
				c-14.65-15.64-32.82-33.01-54.86-50.68c-14.44-11.58-30.53-23.29-48.38-34.73l-0.1,0.05l-4.03,2.04l-0.15,0.08l-10.98,5.56
				c0.01,0.01,0.03,0.02,0.04,0.03c0,0,0.01,0,0.01,0.01c10.81,7.15,33.42,22.35,59.48,44.08c4.21,3.51,8.5,7.18,12.85,11.03
				l-14.44,29.47c-3.84,8.99-14.44,11.76-23.57,11.22l-20.23-1.19l-8.7-0.51c-5.25-0.32-9.15-7.25-12.58-16.63
				c-1.32-3.62-2.58-7.61-3.81-11.73l0,0c1,6.5-0.94,22.33-3.83,28.24c-2.76,5.66-6.62,11.06-10.22,15.18
				c-9.16,10.5-21.21,22.1-28.44,28.55l-6.13,5.47c-2.38,2.12-3.39,5.33-2.84,8.46c0.74,4.18,0.31,10.22-6.65,13.86
				c0,0-12.5,2.87-13.55,17.45c0,0-0.29,3.52-4.4,5.93c-4.45,2.62-7.88,6.69-10.18,11.32l-9.45,19.1c-2.96-2.78-6.5-5.29-10.53-6.62
				v0.01l-1.14,3.91l-3.16,10.84l-8.6,29.52c-1.53,5.24-0.71,10.88,2.23,15.47c0,0,0.17-0.64,0.55-1.77
				c2.06-6.1,10.21-26.58,30.21-38.96c0,0-1.91-3.65-5.32-7.83l0,0l1.83-2.34l17.03-21.7c5.86-0.98,8.26-3.79,9.24-5.75
				c0.59-1.18,0.66-2.06,0.66-2.06c0.04-0.57,0.13-1.09,0.2-1.63c0.11-0.81,0.26-1.59,0.44-2.32c0.37-1.49,0.86-2.82,1.45-4.01
				c1.38-2.78,3.23-4.81,5.06-6.24c3.26-2.54,6.38-3.26,6.38-3.26c0.02-0.01,0.03-0.02,0.05-0.03c0.35-0.19,0.69-0.38,1.01-0.57
				c0.12-0.07,0.22-0.15,0.33-0.22c0.21-0.14,0.42-0.27,0.62-0.42c0.12-0.09,0.24-0.18,0.35-0.28c0.17-0.13,0.34-0.26,0.5-0.4
				c0.12-0.1,0.22-0.2,0.33-0.3c0.14-0.13,0.29-0.26,0.42-0.4c0.1-0.11,0.2-0.22,0.3-0.32c0.12-0.13,0.25-0.27,0.36-0.41
				c0.09-0.11,0.18-0.22,0.27-0.34c0.11-0.14,0.21-0.27,0.31-0.41c0.08-0.12,0.16-0.23,0.23-0.35c0.09-0.14,0.18-0.28,0.26-0.42
				c0.07-0.12,0.13-0.24,0.2-0.35c0.08-0.14,0.15-0.29,0.22-0.43c0.06-0.12,0.11-0.24,0.16-0.35c0.06-0.15,0.12-0.29,0.18-0.44
				c0.05-0.12,0.09-0.24,0.13-0.35c0.05-0.15,0.1-0.3,0.14-0.45c0.03-0.12,0.07-0.23,0.1-0.35c0.04-0.15,0.08-0.31,0.11-0.46
				c0.03-0.11,0.05-0.23,0.08-0.34c0.03-0.16,0.06-0.32,0.08-0.48c0.02-0.1,0.04-0.21,0.05-0.31c0.02-0.18,0.04-0.36,0.05-0.53
				c0.01-0.08,0.02-0.17,0.02-0.25c0.04-0.52,0.04-1.04,0.03-1.54c0-0.08-0.01-0.16-0.01-0.24c-0.01-0.17-0.02-0.34-0.03-0.5
				c0-0.01,0-0.03,0-0.05c-0.37-4.32,1.27-8.57,4.63-11.31l18.18-14.86l27.73-23.71c0.31-0.19,0.59-0.35,0.89-0.53
				c0.02-0.01,0.04-0.03,0.06-0.04l10.34,29.89l5.9,6.83l0.88,10.31l10.32,26.94L231.5,769.26l4.83,1.22l63.91-134.27l-46.35,137.68
				l-0.09,0.26c2.75,0.54,5.21,0.57,7.5,0.22l-2.28,20.33c6.48,0.78,32.08,3.98,71.74,10.22c0,0-13.18,1.05-29.26,2.24
				c-15,1.11-32.51,2.33-44.21,2.93c-1.86,0.09-3.58,0.18-5.11,0.24c1.52,1.92,3.01,3.68,4.49,5.32l-4.58,40.81l42.99,50.92
				l23.64-40.67c0,0,12.63-11.11,22.13-28.71l3.73,48.51c0,0-11.74,7.75-16.26,60.24l7.73,9.15l7.41,8.78l0.55,0.65
				c1.22,1.42,0.71,3.63-1.02,4.36c-1,0.42-2.12,0.2-2.92-0.51c-0.07-0.06-0.16-0.11-0.22-0.18l-3.11-3.38l0,0l-4.39-4.62
				l-4.72-4.97c-0.25,3.9-0.46,8.02-0.62,12.36l-77.26,106.74l12.18-2.31l64.66-85.76c-0.06,8.16,0.02,16.96,0.26,26.47
				c-3.53,1.82-5.52,3.24-5.52,3.24c2.95,6.32,1.23,35.4,1.23,35.4c-3.91,15.6,2.74,30.51,2.74,30.51l0.26,0.03H240.2l0.06-1.81
				c0.15-4.42-1.19-8.76-3.81-12.32l-8.86-12.08c-10.55-20.71,19.54-46.5,19.54-46.5c-2.66-2.47-5.31-4.59-7.94-6.46l50.69-87.23
				l-39.82-41.93l-0.08,0.67c0,0-36.98,4.1-59.97,120.3c-10.08,3.31-16.36,8.4-16.36,8.4c11.65,13.03,3.62,40.22-2.03,54.92
				c-2.03,5.3-0.32,11.21,4.03,14.85c3.36,2.82,5.87,6.12,7.7,9.19h-22.17c-3.3,0-6.01,2.7-6.01,6.01v0.78c0,3.3,2.7,6.01,6.01,6.01
				h8.95l-0.17,29.49h273.46l0.17-29.04l0.09,0.01c0-0.15-0.03-0.3-0.03-0.46h8.89c3.3,0,6.01-2.7,6.01-6.01v-0.78
				c0-3.3-2.7-6.01-6.01-6.01h-13.12c-1.77-2.49-4.03-4.64-6.73-6.28c-18.26-11.06-53.18-32.13-53.48-33.73
				c-3.17-16.55,0.9-32.63,0.9-32.63c-0.84-0.33-1.68-0.63-2.52-0.91l2.81-30.94L410.22,883.26z M281.01,764.09l0.01-0.02l0.56-1.59
				l1.03-2.96L334.52,611l1.23-3.52l-0.48,3.52l-15.35,112.56l-4.47,32.77l-0.34,2.46l-0.94,6.87c0,0-5.07-4.86-13.29-6.14
				c-5.14-0.81-11.52-0.2-18.66,3.86C281.83,763.61,281.42,763.83,281.01,764.09z"/>
			<path class="st5" d="M91.01,686.86c-3.8,4.34-4.32,10.11-1.15,12.89c0.99,0.87,2.24,1.3,3.58,1.4c-0.01-1.81,0.3-3.88,1.21-6.02
				c0.04-0.11,0.08-0.21,0.13-0.32c0.02-0.05,0.04-0.11,0.07-0.16v0.01c0.97-2.19,2.57-4.69,3.53-5.64
				c1.77-1.76,3.94-3.03,6.15-3.96c-0.26-0.37-0.55-0.73-0.9-1.04C100.46,681.24,94.81,682.52,91.01,686.86z"/>
			<path class="st5" d="M151.03,707.24c-1.95-1.95-4.34-3.27-7.01-3.98c-7.8-2.1-17.89,0.98-25.86,8.51
				c-0.26,0.25-0.54,0.48-0.79,0.74c-4.93,4.93-8.07,10.76-9.29,16.39c-0.08,0.37-0.16,0.74-0.22,1.1
				c-1.09,6.25,0.24,12.16,4.25,16.17c5.69,5.69,15.17,5.98,24.05,1.64l-11.19-12.15l12.56-11.99l1.36-1.3l0.43,0.51l10.78,12.77
				C156.97,725.66,157.66,713.87,151.03,707.24z"/>
			<path class="st5" d="M382.02,350.74c-2.96-2.18-6.84-2.55-10.13-0.96l-0.62,0.3l7.79,3.22L382.02,350.74z"/>
			<path class="st5" d="M705.78,415.07c-13.74-1.23-22.22-0.21-28.59,1.05c-0.31,0.06-0.62,0.12-0.92,0.19
				c-3.55,0.74-6.46,1.52-9.31,1.97c-1.07,0.17-2.19,0.67-3.2,1.36c-0.75,0.51-1.44,1.12-1.99,1.78c-1.45,1.72-2.01,3.77-0.41,5.13
				l1.37,1.17l-0.04,0.03l0.06,0.04l8.57,5.89c1.61,1.38,3.55,3.45,2.59,5.34c-1.08,2.12-3.58,3.07-5.79,2.19
				c-1.5-0.59-3.27-1.31-5.09-2.03l0,0l-8.33-3.56l-1.47-0.63c-0.12-0.06-0.24-0.12-0.36-0.18c-0.02-0.01-0.04-0.02-0.06-0.03
				c-2.83-1.39-5.58-2.67-8.74-4.53c-0.35-0.2-0.64-0.48-0.91-0.79c-0.31-0.37-0.56-0.8-0.77-1.29c-0.53-1.26-0.76-2.86-0.82-4.58
				c-0.08-2.39,0.16-4.99,0.34-7.12c0,0-0.43,1.02-1.09,2.94c-0.48,1.38-1.07,3.24-1.72,5.51l-0.05-0.14l-16.35,3.91l-2.83,0.68
				c-0.62,0.17-7.39,0.88-9.48,7.71l0,0c-0.51,1.66-0.76,2.55-0.84,3.22c-3.55-11.05-0.85-22.34,1.8-29.46l0,0
				c0-0.01,0.01-0.03,0.01-0.04l-0.51,0.07c0,0-0.01,0.03-0.02,0.04c-0.31,0.55-5.89,10.59-7.12,22.27
				c-0.19,1.79-0.27,3.62-0.22,5.47c0.01,0.38,0.02,0.75,0.04,1.13l-49.11,15.82c-3.17,0.75-5.99,2.52-8.06,5.02l-0.54,0.66
				c-0.03,0.03-0.06,0.06-0.08,0.09l-1,1.23c-1.5,1.84-3.94,2.62-6.22,1.99l-3.54-0.97c-4.49-1.23-9.28-0.56-13.25,1.87
				c-1.23,0.75-2.58,1.19-3.96,1.36c-0.24,0.04-0.49,0.06-0.74,0.08c-0.08,0-0.16,0-0.24,0c-0.14,0-0.29,0.01-0.43,0.01l-0.05-0.02
				c-1.45-0.04-2.9-0.37-4.23-1.05l-0.61-0.31c-1.41,0.33-2.83,0.6-4.26,0.81l-3.64,0.69c-6.26,1.19-12.74,0.77-18.76-1.35
				c-5.57-1.97-12.91-5.4-21.56-11.34c-5.29-3.39-9.53-6.82-12.92-10.07c-0.43-0.37-0.85-0.74-1.28-1.12
				c-0.14-0.12-0.24-0.21-0.24-0.21c0.08,0.07,0.16,0.14,0.24,0.21c0.18,0.16,0.47,0.4,0.87,0.73c-0.57-0.55-1.11-1.1-1.63-1.64
				c4.72,7.07,10.65,15.2,16.88,23.5l0.09-0.06l1.7,2.35l-0.03,0.04l-14.88,17.35l-4.84,5.64c-2.58,3.01-6.42,4.7-10.38,4.44
				c-3.42-0.23-7.84-1.57-12.97-5.29c-1.24-0.9-2.51-1.89-3.83-3.09c-0.53-0.48-1.02-1.01-1.53-1.51c-1.25-1.23-2.44-2.52-3.55-3.88
				c-2.11-2.55-4.01-5.27-5.67-8.15l-2.4-4.16l-9.87-17.14l0,0l5.41,11.68l8.46,18.28l0.94,2.03c0.29,0.63,0.64,1.22,0.97,1.84
				c2.25,4.27,5.21,8.15,8.96,11.21c3.33,2.73,6.5,4.33,9.39,5.21c9.52,2.88,16.12-2.24,16.12-2.24l9.53-11.11l49.88-9.95l6.83,3.2
				c4.69,2.29,10.28,1.7,14.39-1.52c2.4-1.88,5.36-2.91,8.41-2.91h2.5c4.02,0,7.83-1.77,10.42-4.84l3.14-3.73l39.91-11.34l9.56-2.72
				l13.44-3.82c3.05,3.3,6.19,5.52,6.19,5.52l21.33-15.12l8.85-1.21c0.21,0.45,0.58,0.92,1.19,1.41l6.98,4.96
				c3.71,2.63,8.77,2.23,12.01-0.97l14.45-14.23c1.3-1.91,1.19-4.44-0.27-6.23l-4.11-4.44c13.21-3.05,27.62-4.75,27.62-4.75
				c0.01,0,0.01-0.01,0.01-0.01C710.88,415.5,710.25,415.47,705.78,415.07z"/>
		</g>
	</g>
	<g>
		<path class="st2" d="M632.9,387.21c8.53-0.02,23.62-0.75,33.96,4.51l1.41,0.17l18.43,2.7c15.4,0,27.88-12.48,27.88-27.88v-9.88
			L632.9,387.21z"/>
		<g>
			<g>
				<g>
					<g>
						<path class="st2" d="M702.03,362.81l6.34-24.04c0.72-2.71,3.17-4.6,5.97-4.6l0,0c3.41,0,6.17,2.76,6.17,6.17v13.58
							L702.03,362.81z"/>
						<path class="st2" d="M720.52,353.92v15.07v2.22c0,16.47-13.63,29.67-30.09,29.13l0,0c-4.85-0.16-9.61-1.4-13.92-3.63l-9.65-5
							l35.18-28.92L720.52,353.92z"/>
						<circle class="st5" cx="716.09" cy="338.46" r="0.94"/>
						<circle class="st0" cx="717.02" cy="337.95" r="0.94"/>
						<path class="st5" d="M660.14,386.18l31.21,2.22l0,0c12.82,0,23.22-10.44,23.22-23.31v-8.26l-55.32,24.15
							C656.65,382.12,657.31,385.98,660.14,386.18z"/>
						<polygon class="st2" points="680.38,398.41 689.52,404.5 689.52,409.84 685.9,412.35 690.97,410.28 692.64,414.2 
							692.64,409.7 699.64,410.43 692.37,407.88 691.45,406.69 690.97,405.33 692.64,400.11 						"/>
						<polygon class="st2" points="688.58,396.17 696.84,401.68 696.84,406.5 693.56,408.76 698.14,406.89 699.65,410.43 
							699.65,406.37 705.97,407.02 699.4,404.72 698.83,404.38 698.14,402.43 699.65,397.71 						"/>
					</g>
					<path class="st6" d="M687.87,386.58c9.4-1.39,25.67-6.07,26.7-29.75l-74.31,22.12l6.16,3.24c1.75,2.89,7.96,3.57,11.33,3.81
						l7.13,0.51C668.17,386.75,684.61,387.06,687.87,386.58z"/>
				</g>
				<path class="st5" d="M703.77,356.21l2.52-1.31c3.23-1.68,6.93-2.25,10.51-1.62l3.71,0.64v-8.02l-4.47,1.56
					c-0.94,0.33-1.97,0.23-2.84-0.26l-1.07-0.61l-0.85,0.53c-1.66,1.03-3.84,0.48-4.8-1.23l0,0L703.77,356.21z"/>
			</g>
			<path class="st4" d="M720.44,339.33c-0.97-0.32-2.13,0.55-2.13,1.58l0.01,0.45c0,1.03,1.1,1.43,2.35,1.15
				c0.94-0.21,2.04-0.15,3.19-0.04l1.84,0.21l0.44-0.24L720.44,339.33z"/>
			<path class="st3" d="M718.31,340.8c0,0-0.04-1.81,2.06-1.84c0,0,0.86,0.15,0.78,0.75C721.15,339.71,719.25,339.8,718.31,340.8z"
				/>
		</g>
	</g>
</g>
</svg>
